{
  "project_info": {
    "project_number": "65376428784",
    "firebase_url": "https://myfirebasework-2b7ec.firebaseio.com",
    "project_id": "myfirebasework-2b7ec",
    "storage_bucket": "myfirebasework-2b7ec.appspot.com"
  },
  "client": [
    {
      "client_info": {
        "mobilesdk_app_id": "1:65376428784:android:7620c4560463857f209835",
        "android_client_info": {
          "package_name": "com.example.firebaseauth"
        }
      },
      "oauth_client": [
        {
          "client_id": "65376428784-fkkckquqmos6d4deg900qlhgpa2m0005.apps.googleusercontent.com",
          "client_type": 1,
          "android_info": {
            "package_name": "com.example.firebaseauth",
            "certificate_hash": "9e69c6acad23beee35fa934f6851985e6b31ea83"
          }
        },
        {
          "client_id": "65376428784-2drm5pn6067ncsve3pfnb6cpo7bke6b2.apps.googleusercontent.com",
          "client_type": 1,
          "android_info": {
            "package_name": "com.example.firebaseauth",
            "certificate_hash": "bcea204f3e658c3f2b04340f233ea1d19e062684"
          }
        },
        {
          "client_id": "65376428784-iptpmo09ht09fjjhv1vr761eo3e64bib.apps.googleusercontent.com",
          "client_type": 3
        }
      ],
      "api_key": [
        {
          "current_key": "AIzaSyABUbJ2IK_e9bJN83gnn4mZDM5J4zM-uIM"
        }
      ],
      "services": {
        "appinvite_service": {
          "other_platform_oauth_client": [
            {
              "client_id": "65376428784-iptpmo09ht09fjjhv1vr761eo3e64bib.apps.googleusercontent.com",
              "client_type": 3
            }
          ]
        }
      }
    },
    {
      "client_info": {
        "mobilesdk_app_id": "1:65376428784:android:d9820cb3fc0130e9209835",
        "android_client_info": {
          "package_name": "com.mustaq.learningwork"
        }
      },
      "oauth_client": [
        {
          "client_id": "65376428784-ueg8uv1ph18o7d2nnnqhkol28e2f4s80.apps.googleusercontent.com",
          "client_type": 1,
          "android_info": {
            "package_name": "com.mustaq.learningwork",
            "certificate_hash": "9e69c6acad23beee35fa934f6851985e6b31ea83"
          }
        },
        {
          "client_id": "65376428784-iptpmo09ht09fjjhv1vr761eo3e64bib.apps.googleusercontent.com",
          "client_type": 3
        }
      ],
      "api_key": [
        {
          "current_key": "AIzaSyABUbJ2IK_e9bJN83gnn4mZDM5J4zM-uIM"
        }
      ],
      "services": {
        "appinvite_service": {
          "other_platform_oauth_client": [
            {
              "client_id": "65376428784-iptpmo09ht09fjjhv1vr761eo3e64bib.apps.googleusercontent.com",
              "client_type": 3
            }
          ]
        }
      }
    },
    {
      "client_info": {
        "mobilesdk_app_id": "1:65376428784:android:dfcf52fe7d89c6bf209835",
        "android_client_info": {
          "package_name": "com.mustaq.mywork"
        }
      },
      "oauth_client": [
        {
          "client_id": "65376428784-58ehviqf8qkdge6pk7pm3fuo7hl3b7mv.apps.googleusercontent.com",
          "client_type": 1,
          "android_info": {
            "package_name": "com.mustaq.mywork",
            "certificate_hash": "2b78bd973d562ed3620246886e804279e6b3bda3"
          }
        },
        {
          "client_id": "65376428784-l6kvv84damsvvgbh8bq8pl6btdp12122.apps.googleusercontent.com",
          "client_type": 1,
          "android_info": {
            "package_name": "com.mustaq.mywork",
            "certificate_hash": "e00e6cb9be2208883e2c0923c015df016744660c"
          }
        },
        {
          "client_id": "65376428784-iptpmo09ht09fjjhv1vr761eo3e64bib.apps.googleusercontent.com",
          "client_type": 3
        }
      ],
      "api_key": [
        {
          "current_key": "AIzaSyABUbJ2IK_e9bJN83gnn4mZDM5J4zM-uIM"
        }
      ],
      "services": {
        "appinvite_service": {
          "other_platform_oauth_client": [
            {
              "client_id": "65376428784-iptpmo09ht09fjjhv1vr761eo3e64bib.apps.googleusercontent.com",
              "client_type": 3
            }
          ]
        }
      }
    }
  ],
  "configuration_version": "1"
}